<?xml version="1.0" encoding="UTF-8" standalone="no"?>
<!DOCTYPE svg PUBLIC "-//W3C//DTD SVG 1.1//EN"
 "http://www.w3.org/Graphics/SVG/1.1/DTD/svg11.dtd">
<!-- Generated by graphviz version 2.47.0 (20210316.0004)
 -->
<!-- Title: dependencies Pages: 1 -->
<svg width="2400pt" height="284pt"
 viewBox="0.00 0.00 2400.00 284.00" xmlns="http://www.w3.org/2000/svg" xmlns:xlink="http://www.w3.org/1999/xlink">
<g id="graph0" class="graph" transform="scale(1 1) rotate(0) translate(4 280)">
<title>dependencies</title>
<polygon fill="white" stroke="transparent" points="-4,4 -4,-280 2396,-280 2396,4 -4,4"/>
<text text-anchor="start" x="1175.01" y="-42.4" font-family="Times-12" font-weight="bold" font-size="14.00">Legend</text>
<polygon fill="#ffffb3" stroke="transparent" points="962,-10 962,-30 982,-30 982,-10 962,-10"/>
<text text-anchor="start" x="985.63" y="-15.4" font-family="Times-12" font-size="14.00"> &#160;Declarations</text>
<polygon fill="#8dd3c7" stroke="transparent" points="1075,-10 1075,-30 1095,-30 1095,-10 1075,-10"/>
<text text-anchor="start" x="1098.73" y="-15.4" font-family="Times-12" font-size="14.00"> &#160;Module</text>
<polygon fill="#80b1d3" stroke="transparent" points="1161,-10 1161,-30 1181,-30 1181,-10 1161,-10"/>
<text text-anchor="start" x="1184.78" y="-15.4" font-family="Times-12" font-size="14.00"> &#160;Bootstrap</text>
<polygon fill="#fdb462" stroke="transparent" points="1258,-10 1258,-30 1278,-30 1278,-10 1258,-10"/>
<text text-anchor="start" x="1281.67" y="-15.4" font-family="Times-12" font-size="14.00"> &#160;Providers</text>
<polygon fill="#fb8072" stroke="transparent" points="1354,-10 1354,-30 1374,-30 1374,-10 1354,-10"/>
<text text-anchor="start" x="1377.73" y="-15.4" font-family="Times-12" font-size="14.00"> &#160;Exports</text>
<g id="clust1" class="cluster">
<title>cluster_AppModule</title>
<polygon fill="none" stroke="black" stroke-dasharray="1,5" points="8,-70 8,-268 2384,-268 2384,-70 8,-70"/>
</g>
<g id="clust2" class="cluster">
<title>cluster_AppModule_declarations</title>
<polygon fill="none" stroke="black" points="168,-78 168,-130 2376,-130 2376,-78 168,-78"/>
</g>
<g id="clust16" class="cluster">
<title>cluster_AppModule_imports</title>
<polygon fill="none" stroke="black" points="16,-78 16,-130 160,-130 160,-78 16,-78"/>
</g>
<g id="clust18" class="cluster">
<title>cluster_AppModule_bootstrap</title>
<polygon fill="none" stroke="black" points="1120,-208 1120,-260 1244,-260 1244,-208 1120,-208"/>
</g>
<!-- AdminViewComponent -->
<g id="node1" class="node">
<title>AdminViewComponent</title>
<polygon fill="#ffffb3" stroke="black" points="2368.04,-122 2217.96,-122 2217.96,-86 2368.04,-86 2368.04,-122"/>
<text text-anchor="middle" x="2293" y="-99.8" font-family="Times,serif" font-size="14.00">AdminViewComponent</text>
</g>
<!-- AppModule -->
<g id="node14" class="node">
<title>AppModule</title>
<polygon fill="#8dd3c7" stroke="black" points="1223.66,-187 1220.66,-191 1199.66,-191 1196.66,-187 1140.34,-187 1140.34,-151 1223.66,-151 1223.66,-187"/>
<text text-anchor="middle" x="1182" y="-164.8" font-family="Times,serif" font-size="14.00">AppModule</text>
</g>
<!-- AdminViewComponent&#45;&gt;AppModule -->
<g id="edge1" class="edge">
<title>AdminViewComponent&#45;&gt;AppModule</title>
<path fill="none" stroke="black" d="M2293,-122.09C2293,-145.13 2293,-182 2293,-182 2293,-182 1233.86,-182 1233.86,-182"/>
<polygon fill="black" stroke="black" points="1233.86,-178.5 1223.86,-182 1233.86,-185.5 1233.86,-178.5"/>
</g>
<!-- AppComponent -->
<g id="node2" class="node">
<title>AppComponent</title>
<polygon fill="#ffffb3" stroke="black" points="2199.94,-122 2094.06,-122 2094.06,-86 2199.94,-86 2199.94,-122"/>
<text text-anchor="middle" x="2147" y="-99.8" font-family="Times,serif" font-size="14.00">AppComponent</text>
</g>
<!-- AppComponent&#45;&gt;AppModule -->
<g id="edge2" class="edge">
<title>AppComponent&#45;&gt;AppModule</title>
<path fill="none" stroke="black" d="M2147,-122.04C2147,-143.66 2147,-177 2147,-177 2147,-177 1233.77,-177 1233.77,-177"/>
<polygon fill="black" stroke="black" points="1233.77,-173.5 1223.77,-177 1233.77,-180.5 1233.77,-173.5"/>
</g>
<!-- CertificateTemplateComponent -->
<g id="node3" class="node">
<title>CertificateTemplateComponent</title>
<polygon fill="#ffffb3" stroke="black" points="2076.78,-122 1883.22,-122 1883.22,-86 2076.78,-86 2076.78,-122"/>
<text text-anchor="middle" x="1980" y="-99.8" font-family="Times,serif" font-size="14.00">CertificateTemplateComponent</text>
</g>
<!-- CertificateTemplateComponent&#45;&gt;AppModule -->
<g id="edge3" class="edge">
<title>CertificateTemplateComponent&#45;&gt;AppModule</title>
<path fill="none" stroke="black" d="M1980,-122.22C1980,-142.37 1980,-172 1980,-172 1980,-172 1233.78,-172 1233.78,-172"/>
<polygon fill="black" stroke="black" points="1233.78,-168.5 1223.78,-172 1233.78,-175.5 1233.78,-168.5"/>
</g>
<!-- CertificateUploadComponent -->
<g id="node4" class="node">
<title>CertificateUploadComponent</title>
<polygon fill="#ffffb3" stroke="black" points="1865.62,-122 1684.38,-122 1684.38,-86 1865.62,-86 1865.62,-122"/>
<text text-anchor="middle" x="1775" y="-99.8" font-family="Times,serif" font-size="14.00">CertificateUploadComponent</text>
</g>
<!-- CertificateUploadComponent&#45;&gt;AppModule -->
<g id="edge4" class="edge">
<title>CertificateUploadComponent&#45;&gt;AppModule</title>
<path fill="none" stroke="black" d="M1775,-122.22C1775,-140.83 1775,-167 1775,-167 1775,-167 1233.7,-167 1233.7,-167"/>
<polygon fill="black" stroke="black" points="1233.7,-163.5 1223.7,-167 1233.7,-170.5 1233.7,-163.5"/>
</g>
<!-- DashboardComponent -->
<g id="node5" class="node">
<title>DashboardComponent</title>
<polygon fill="#ffffb3" stroke="black" points="1665.97,-122 1524.03,-122 1524.03,-86 1665.97,-86 1665.97,-122"/>
<text text-anchor="middle" x="1595" y="-99.8" font-family="Times,serif" font-size="14.00">DashboardComponent</text>
</g>
<!-- DashboardComponent&#45;&gt;AppModule -->
<g id="edge5" class="edge">
<title>DashboardComponent&#45;&gt;AppModule</title>
<path fill="none" stroke="black" d="M1595,-122.03C1595,-139.06 1595,-162 1595,-162 1595,-162 1233.87,-162 1233.87,-162"/>
<polygon fill="black" stroke="black" points="1233.87,-158.5 1223.87,-162 1233.87,-165.5 1233.87,-158.5"/>
</g>
<!-- FileUploadComponent -->
<g id="node6" class="node">
<title>FileUploadComponent</title>
<polygon fill="#ffffb3" stroke="black" points="1506.32,-122 1361.68,-122 1361.68,-86 1506.32,-86 1506.32,-122"/>
<text text-anchor="middle" x="1434" y="-99.8" font-family="Times,serif" font-size="14.00">FileUploadComponent</text>
</g>
<!-- FileUploadComponent&#45;&gt;AppModule -->
<g id="edge6" class="edge">
<title>FileUploadComponent&#45;&gt;AppModule</title>
<path fill="none" stroke="black" d="M1434,-122.24C1434,-137.57 1434,-157 1434,-157 1434,-157 1233.9,-157 1233.9,-157"/>
<polygon fill="black" stroke="black" points="1233.9,-153.5 1223.9,-157 1233.9,-160.5 1233.9,-153.5"/>
</g>
<!-- HomeViewComponent -->
<g id="node7" class="node">
<title>HomeViewComponent</title>
<polygon fill="#ffffb3" stroke="black" points="1343.86,-122 1198.14,-122 1198.14,-86 1343.86,-86 1343.86,-122"/>
<text text-anchor="middle" x="1271" y="-99.8" font-family="Times,serif" font-size="14.00">HomeViewComponent</text>
</g>
<!-- HomeViewComponent&#45;&gt;AppModule -->
<g id="edge7" class="edge">
<title>HomeViewComponent&#45;&gt;AppModule</title>
<path fill="none" stroke="black" d="M1210.95,-122.11C1210.95,-122.11 1210.95,-140.99 1210.95,-140.99"/>
<polygon fill="black" stroke="black" points="1207.45,-140.99 1210.95,-150.99 1214.45,-140.99 1207.45,-140.99"/>
</g>
<!-- ImpressumViewComponent -->
<g id="node8" class="node">
<title>ImpressumViewComponent</title>
<polygon fill="#ffffb3" stroke="black" points="1179.86,-122 1006.14,-122 1006.14,-86 1179.86,-86 1179.86,-122"/>
<text text-anchor="middle" x="1093" y="-99.8" font-family="Times,serif" font-size="14.00">ImpressumViewComponent</text>
</g>
<!-- ImpressumViewComponent&#45;&gt;AppModule -->
<g id="edge8" class="edge">
<title>ImpressumViewComponent&#45;&gt;AppModule</title>
<path fill="none" stroke="black" d="M1160.05,-122.11C1160.05,-122.11 1160.05,-140.99 1160.05,-140.99"/>
<polygon fill="black" stroke="black" points="1156.55,-140.99 1160.05,-150.99 1163.55,-140.99 1156.55,-140.99"/>
</g>
<!-- OnboardingViewComponent -->
<g id="node9" class="node">
<title>OnboardingViewComponent</title>
<polygon fill="#ffffb3" stroke="black" points="988.02,-122 809.98,-122 809.98,-86 988.02,-86 988.02,-122"/>
<text text-anchor="middle" x="899" y="-99.8" font-family="Times,serif" font-size="14.00">OnboardingViewComponent</text>
</g>
<!-- OnboardingViewComponent&#45;&gt;AppModule -->
<g id="edge9" class="edge">
<title>OnboardingViewComponent&#45;&gt;AppModule</title>
<path fill="none" stroke="black" d="M899,-122.24C899,-137.57 899,-157 899,-157 899,-157 1130.24,-157 1130.24,-157"/>
<polygon fill="black" stroke="black" points="1130.24,-160.5 1140.24,-157 1130.24,-153.5 1130.24,-160.5"/>
</g>
<!-- PermissionDeniedComponent -->
<g id="node10" class="node">
<title>PermissionDeniedComponent</title>
<polygon fill="#ffffb3" stroke="black" points="791.98,-122 608.02,-122 608.02,-86 791.98,-86 791.98,-122"/>
<text text-anchor="middle" x="700" y="-99.8" font-family="Times,serif" font-size="14.00">PermissionDeniedComponent</text>
</g>
<!-- PermissionDeniedComponent&#45;&gt;AppModule -->
<g id="edge10" class="edge">
<title>PermissionDeniedComponent&#45;&gt;AppModule</title>
<path fill="none" stroke="black" d="M700,-122.03C700,-139.06 700,-162 700,-162 700,-162 1130.07,-162 1130.07,-162"/>
<polygon fill="black" stroke="black" points="1130.07,-165.5 1140.07,-162 1130.07,-158.5 1130.07,-165.5"/>
</g>
<!-- UserViewComponent -->
<g id="node11" class="node">
<title>UserViewComponent</title>
<polygon fill="#ffffb3" stroke="black" points="590.08,-122 451.92,-122 451.92,-86 590.08,-86 590.08,-122"/>
<text text-anchor="middle" x="521" y="-99.8" font-family="Times,serif" font-size="14.00">UserViewComponent</text>
</g>
<!-- UserViewComponent&#45;&gt;AppModule -->
<g id="edge11" class="edge">
<title>UserViewComponent&#45;&gt;AppModule</title>
<path fill="none" stroke="black" d="M521,-122.22C521,-140.83 521,-167 521,-167 521,-167 1130.15,-167 1130.15,-167"/>
<polygon fill="black" stroke="black" points="1130.15,-170.5 1140.15,-167 1130.15,-163.5 1130.15,-170.5"/>
</g>
<!-- VcViewComponent -->
<g id="node12" class="node">
<title>VcViewComponent</title>
<polygon fill="#ffffb3" stroke="black" points="433.97,-122 306.03,-122 306.03,-86 433.97,-86 433.97,-122"/>
<text text-anchor="middle" x="370" y="-99.8" font-family="Times,serif" font-size="14.00">VcViewComponent</text>
</g>
<!-- VcViewComponent&#45;&gt;AppModule -->
<g id="edge12" class="edge">
<title>VcViewComponent&#45;&gt;AppModule</title>
<path fill="none" stroke="black" d="M370,-122.22C370,-142.37 370,-172 370,-172 370,-172 1130.34,-172 1130.34,-172"/>
<polygon fill="black" stroke="black" points="1130.34,-175.5 1140.34,-172 1130.34,-168.5 1130.34,-175.5"/>
</g>
<!-- sanitizeHtmlPipe -->
<g id="node13" class="node">
<title>sanitizeHtmlPipe</title>
<polygon fill="#ffffb3" stroke="black" points="288.43,-122 175.57,-122 175.57,-86 288.43,-86 288.43,-122"/>
<text text-anchor="middle" x="232" y="-99.8" font-family="Times,serif" font-size="14.00">sanitizeHtmlPipe</text>
</g>
<!-- sanitizeHtmlPipe&#45;&gt;AppModule -->
<g id="edge13" class="edge">
<title>sanitizeHtmlPipe&#45;&gt;AppModule</title>
<path fill="none" stroke="black" d="M232,-122.04C232,-143.66 232,-177 232,-177 232,-177 1130.26,-177 1130.26,-177"/>
<polygon fill="black" stroke="black" points="1130.26,-180.5 1140.26,-177 1130.26,-173.5 1130.26,-180.5"/>
</g>
<!-- AppComponent  -->
<g id="node16" class="node">
<title>AppComponent </title>
<polygon fill="#80b1d3" stroke="black" points="1236.44,-252 1127.56,-252 1127.56,-216 1236.44,-216 1236.44,-252"/>
<text text-anchor="middle" x="1182" y="-229.8" font-family="Times,serif" font-size="14.00">AppComponent </text>
</g>
<!-- AppModule&#45;&gt;AppComponent  -->
<g id="edge15" class="edge">
<title>AppModule&#45;&gt;AppComponent </title>
<path fill="none" stroke="black" stroke-dasharray="1,5" d="M1182,-187.11C1182,-187.11 1182,-205.99 1182,-205.99"/>
<polygon fill="black" stroke="black" points="1178.5,-205.99 1182,-215.99 1185.5,-205.99 1178.5,-205.99"/>
</g>
<!-- AppRoutingModule -->
<g id="node15" class="node">
<title>AppRoutingModule</title>
<polygon fill="#8dd3c7" stroke="black" points="152.27,-122 149.27,-126 128.27,-126 125.27,-122 23.73,-122 23.73,-86 152.27,-86 152.27,-122"/>
<text text-anchor="middle" x="88" y="-99.8" font-family="Times,serif" font-size="14.00">AppRoutingModule</text>
</g>
<!-- AppRoutingModule&#45;&gt;AppModule -->
<g id="edge14" class="edge">
<title>AppRoutingModule&#45;&gt;AppModule</title>
<path fill="none" stroke="black" d="M88,-122.09C88,-145.13 88,-182 88,-182 88,-182 1130.12,-182 1130.12,-182"/>
<polygon fill="black" stroke="black" points="1130.12,-185.5 1140.12,-182 1130.12,-178.5 1130.12,-185.5"/>
</g>
</g>
</svg>
